NAME         	NAMESPACE	REVISION	UPDATED                                	STATUS  	CHART           	APP VERSION
local-helm-01	default  	1       	2023-09-13 07:18:42.270671373 +0000 UTC	deployed	phoenixnap-0.2.0	1.16.0     
local-helm-02	default  	1       	2023-09-13 07:45:17.165831059 +0000 UTC	deployed	phoenixnap-0.4.0	1.16.0     
